Ridge Regression, LASSO, and Elastic Net
…
Also, let’s plot the data to get a better understanding of the
relationships within it. We’ll use our usual trick of gathering the data
so we can facet by each variable, supplying "free_x" as the
scales argument to allow the x-axis to vary between facets. To get an
indication as to any linear relationships with Yield, also
apply a geom_smooth layer, using "lm" as the
argument to method to get linear fits.

Iowa <- read.csv("iowa.csv")

iowaTib <- as_tibble(Iowa)
iowaTib

## # A tibble: 33 × 10
##     Year Rain0 Temp1 Rain1 Temp2 Rain2 Temp3 Rain3 Temp4 Yield
##    <int> <dbl> <dbl> <dbl> <dbl> <dbl> <dbl> <dbl> <dbl> <dbl>
##  1  1930  17.8  60.2  5.83  69    1.49  77.9  2.42  74.4  34  
##  2  1931  14.8  57.5  3.83  75    2.72  77.2  3.3   72.6  32.9
##  3  1932  28.0  62.3  5.17  72    3.12  75.8  7.1   72.2  43  
##  4  1933  16.8  60.5  1.64  77.8  3.45  76.4  3.01  70.5  40  
##  5  1934  11.4  69.5  3.49  77.2  3.85  79.7  2.84  73.4  23  
##  6  1935  22.7  55    7     65.9  3.35  79.4  2.42  73.6  38.4
##  7  1936  17.9  66.2  2.85  70.1  0.51  83.4  3.48  79.2  20  
##  8  1937  23.3  61.8  3.8   69    2.63  75.9  3.99  77.8  44.6
##  9  1938  18.5  59.5  4.67  69.2  4.24  76.5  3.82  75.7  46.3
## 10  1939  18.6  66.4  5.32  71.4  3.15  76.2  4.72  70.7  52.2
## # ℹ 23 more rows
…
