Discriminant Analysis
…
Let’s load the wine data built into the HDclassif package (after
installing it), convert it into a tibble, and explore it a little. We
have a tibble containing 178 cases and 14 variables of measurements made
on various wine bottles.

data(wine, package = "HDclassif")

wineTib <- as_tibble(wine)
names(wineTib) <- c("Class", "Alco", "Malic", "Ash", "Alk", "Mag", "Phe", "Flav",
    "Non_flav", "Proan", "Col", "Hue", "OD", "Prol")
wineTib$Class <- as_factor(wineTib$Class)

wineTib

## # A tibble: 178 × 14
##    Class  Alco Malic   Ash   Alk   Mag   Phe  Flav Non_flav Proan   Col   Hue
##    <fct> <dbl> <dbl> <dbl> <dbl> <int> <dbl> <dbl>    <dbl> <dbl> <dbl> <dbl>
##  1 1      14.2  1.71  2.43  15.6   127  2.8   3.06     0.28  2.29  5.64  1.04
##  2 1      13.2  1.78  2.14  11.2   100  2.65  2.76     0.26  1.28  4.38  1.05
##  3 1      13.2  2.36  2.67  18.6   101  2.8   3.24     0.3   2.81  5.68  1.03
##  4 1      14.4  1.95  2.5   16.8   113  3.85  3.49     0.24  2.18  7.8   0.86
##  5 1      13.2  2.59  2.87  21     118  2.8   2.69     0.39  1.82  4.32  1.04
##  6 1      14.2  1.76  2.45  15.2   112  3.27  3.39     0.34  1.97  6.75  1.05
##  7 1      14.4  1.87  2.45  14.6    96  2.5   2.52     0.3   1.98  5.25  1.02
##  8 1      14.1  2.15  2.61  17.6   121  2.6   2.51     0.31  1.25  5.05  1.06
##  9 1      14.8  1.64  2.17  14      97  2.8   2.98     0.29  1.98  5.2   1.08
## 10 1      13.9  1.35  2.27  16      98  2.98  3.15     0.22  1.85  7.22  1.01
## # ℹ 168 more rows
## # ℹ 2 more variables: OD <dbl>, Prol <int>
…
