Data Analytics and ML: Midterm Exam
…
Optimize the Loan Eligibility Process

Dream Housing Finance company deals in all kinds of home loans…

Data Dictionary

…

myURL = "https://www.dropbox.com/scl/fi/wn5ow4zvgg4p4odfbor51/LoanPrediction.csv?rlkey=mludfatyg87sgz8374i0h8kfa&st=6kivxmtg&dl=1"

myData = as_tibble(read_csv(myURL, na = c("", " ", NA), show_col_types = FALSE))
myData

## # A tibble: 614 × 13
##    Loan_ID  Gender Married Dependents Education    Self_Employed ApplicantIncome
##    <chr>    <chr>  <chr>   <chr>      <chr>        <chr>                   <dbl>
##  1 LP001002 Male   No      0          Graduate     No                       5849
##  2 LP001003 Male   Yes     1          Graduate     No                       4583
##  3 LP001005 Male   Yes     0          Graduate     Yes                      3000
##  4 LP001006 Male   Yes     0          Not Graduate No                       2583
##  5 LP001008 Male   No      0          Graduate     No                       6000
##  6 LP001011 Male   Yes     2          Graduate     Yes                      5417
##  7 LP001013 Male   Yes     0          Not Graduate No                       2333
##  8 LP001014 Male   Yes     3+         Graduate     No                       3036
##  9 LP001018 Male   Yes     2          Graduate     No                       4006
## 10 LP001020 Male   Yes     1          Graduate     No                      12841
## # ℹ 604 more rows
## # ℹ 6 more variables: CoapplicantIncome <dbl>, LoanAmount <dbl>,
## #   Loan_Amount_Term <dbl>, Credit_History <dbl>, Property_Area <chr>,
## #   Loan_Status <chr>
…
